{"current_page":1,"data":[{"id":1,"hr":null,"name":"demo","first_name":"demo","last_name":"demo","full_name":"demo demo","email":"demo@demo.com","birth_date":null,"place_of_birth":null,"pesel":null,"marital_status":null,"citizenship":null,"telephone":null,"email_verified_at":"2023-11-28T13:59:47.000000Z","img":null,"status":1,"avatar":null,"first_work_day":null,"created_at":"2023-11-28T13:59:47.000000Z","updated_at":"2023-11-28T13:59:47.000000Z","api_token":null},{"id":1001,"hr":"","name":null,"first_name":"Jacek","last_name":"Hermanowicz","full_name":"Jacek Hermanowicz","email":null,"birth_date":"1974-08-01","place_of_birth":null,"pesel":null,"marital_status":null,"citizenship":null,"telephone":null,"email_verified_at":null,"img":null,"status":0,"avatar":"avatar\/1001.png","first_work_day":"2016-02-01","created_at":"2023-11-28T14:02:05.000000Z","updated_at":"2023-11-28T14:02:05.000000Z","api_token":null},{"id":1003,"hr":"","name":null,"first_name":"Marian","last_name":"Bedonski","full_name":"Marian Bedonski","email":null,"birth_date":"1978-12-28","place_of_birth":null,"pesel":null,"marital_status":null,"citizenship":null,"telephone":null,"email_verified_at":null,"img":null,"status":0,"avatar":"avatar\/1003.png","first_work_day":"2018-06-14","created_at":"2023-11-28T14:02:05.000000Z","updated_at":"2023-11-28T14:02:05.000000Z","api_token":null},{"id":1004,"hr":"","name":null,"first_name":"Lech","last_name":"Dembek","full_name":"Lech Dembek","email":null,"birth_date":"1955-08-08","place_of_birth":null,"pesel":null,"marital_status":null,"citizenship":null,"telephone":null,"email_verified_at":null,"img":null,"status":0,"avatar":"avatar\/1004.png","first_work_day":"2006-11-13","created_at":"2023-11-28T14:02:05.000000Z","updated_at":"2023-11-28T14:02:05.000000Z","api_token":null},{"id":1005,"hr":"","name":null,"first_name":"Mariusz","last_name":"Dembek","full_name":"Mariusz Dembek","email":null,"birth_date":"1971-12-08","place_of_birth":null,"pesel":null,"marital_status":null,"citizenship":null,"telephone":null,"email_verified_at":null,"img":null,"status":0,"avatar":"avatar\/1005.png","first_work_day":"2004-05-24","created_at":"2023-11-28T14:02:05.000000Z","updated_at":"2023-11-28T14:02:05.000000Z","api_token":null},{"id":1006,"hr":"","name":null,"first_name":"Piotr","last_name":"Durka","full_name":"Piotr Durka","email":null,"birth_date":"1983-02-09","place_of_birth":null,"pesel":null,"marital_status":null,"citizenship":null,"telephone":null,"email_verified_at":null,"img":null,"status":0,"avatar":"avatar\/1006.png","first_work_day":"2004-05-24","created_at":"2023-11-28T14:02:05.000000Z","updated_at":"2023-11-28T14:02:05.000000Z","api_token":null},{"id":1007,"hr":"0205419","name":null,"first_name":"Krzysztof","last_name":"Du\u017a","full_name":"Krzysztof Du\u017a","email":null,"birth_date":"1966-09-11","place_of_birth":null,"pesel":null,"marital_status":null,"citizenship":null,"telephone":null,"email_verified_at":null,"img":null,"status":1,"avatar":"avatar\/1007.png","first_work_day":"2015-07-01","created_at":"2023-11-28T14:02:05.000000Z","updated_at":"2023-11-28T14:02:05.000000Z","api_token":null},{"id":1008,"hr":"","name":null,"first_name":"El\u017cbieta","last_name":"Poninska","full_name":"El\u017cbieta Poninska","email":null,"birth_date":"1959-05-17","place_of_birth":null,"pesel":null,"marital_status":null,"citizenship":null,"telephone":null,"email_verified_at":null,"img":null,"status":0,"avatar":"avatar\/1008.png","first_work_day":"2005-05-30","created_at":"2023-11-28T14:02:05.000000Z","updated_at":"2023-11-28T14:02:05.000000Z","api_token":null},{"id":1010,"hr":"","name":null,"first_name":"Wojciech","last_name":"Dzbik","full_name":"Wojciech Dzbik","email":null,"birth_date":"1983-06-14","place_of_birth":null,"pesel":null,"marital_status":null,"citizenship":null,"telephone":null,"email_verified_at":null,"img":null,"status":0,"avatar":"avatar\/1010.png","first_work_day":"2010-05-18","created_at":"2023-11-28T14:02:05.000000Z","updated_at":"2023-11-28T14:02:05.000000Z","api_token":null},{"id":1011,"hr":"","name":null,"first_name":"Mariusz","last_name":"Gryndziak","full_name":"Mariusz Gryndziak","email":null,"birth_date":"1974-12-19","place_of_birth":null,"pesel":null,"marital_status":null,"citizenship":null,"telephone":null,"email_verified_at":null,"img":null,"status":0,"avatar":"avatar\/1011.png","first_work_day":"2006-05-02","created_at":"2023-11-28T14:02:05.000000Z","updated_at":"2023-11-28T14:02:05.000000Z","api_token":null},{"id":1012,"hr":"","name":null,"first_name":"Pawe\u0142","last_name":"Jakubowski","full_name":"Pawe\u0142 Jakubowski","email":null,"birth_date":"1972-08-05","place_of_birth":null,"pesel":null,"marital_status":null,"citizenship":null,"telephone":null,"email_verified_at":null,"img":null,"status":0,"avatar":"avatar\/1012.png","first_work_day":"2004-05-24","created_at":"2023-11-28T14:02:05.000000Z","updated_at":"2023-11-28T14:02:05.000000Z","api_token":null},{"id":1013,"hr":"","name":null,"first_name":"Wieslaw","last_name":"Kepa","full_name":"Wieslaw Kepa","email":null,"birth_date":"1973-03-17","place_of_birth":null,"pesel":null,"marital_status":null,"citizenship":null,"telephone":null,"email_verified_at":null,"img":null,"status":0,"avatar":"avatar\/1013.png","first_work_day":"2004-06-24","created_at":"2023-11-28T14:02:05.000000Z","updated_at":"2023-11-28T14:02:05.000000Z","api_token":null},{"id":1014,"hr":"","name":null,"first_name":"Mariusz","last_name":"Las","full_name":"Mariusz Las","email":null,"birth_date":"1980-10-29","place_of_birth":null,"pesel":null,"marital_status":null,"citizenship":null,"telephone":null,"email_verified_at":null,"img":null,"status":0,"avatar":"avatar\/1014.png","first_work_day":"2006-05-23","created_at":"2023-11-28T14:02:05.000000Z","updated_at":"2023-11-28T14:02:05.000000Z","api_token":null},{"id":1015,"hr":"","name":null,"first_name":"Andrzej","last_name":"Lenort","full_name":"Andrzej Lenort","email":null,"birth_date":"1978-11-23","place_of_birth":null,"pesel":null,"marital_status":null,"citizenship":null,"telephone":null,"email_verified_at":null,"img":null,"status":0,"avatar":"avatar\/1015.png","first_work_day":"2004-05-24","created_at":"2023-11-28T14:02:05.000000Z","updated_at":"2023-11-28T14:02:05.000000Z","api_token":null},{"id":1016,"hr":"","name":null,"first_name":"Karol","last_name":"Lusiak","full_name":"Karol Lusiak","email":null,"birth_date":"1975-05-14","place_of_birth":null,"pesel":null,"marital_status":null,"citizenship":null,"telephone":null,"email_verified_at":null,"img":null,"status":0,"avatar":"avatar\/1016.png","first_work_day":"2004-05-24","created_at":"2023-11-28T14:02:05.000000Z","updated_at":"2023-11-28T14:02:05.000000Z","api_token":null}],"first_page_url":"http:\/\/localhost\/api\/v1\/user?page=1","from":1,"last_page":1664,"last_page_url":"http:\/\/localhost\/api\/v1\/user?page=1664","links":[{"url":null,"label":"&laquo; Previous","active":false},{"url":"http:\/\/localhost\/api\/v1\/user?page=1","label":"1","active":true},{"url":"http:\/\/localhost\/api\/v1\/user?page=2","label":"2","active":false},{"url":"http:\/\/localhost\/api\/v1\/user?page=3","label":"3","active":false},{"url":"http:\/\/localhost\/api\/v1\/user?page=4","label":"4","active":false},{"url":"http:\/\/localhost\/api\/v1\/user?page=5","label":"5","active":false},{"url":"http:\/\/localhost\/api\/v1\/user?page=6","label":"6","active":false},{"url":"http:\/\/localhost\/api\/v1\/user?page=7","label":"7","active":false},{"url":"http:\/\/localhost\/api\/v1\/user?page=8","label":"8","active":false},{"url":"http:\/\/localhost\/api\/v1\/user?page=9","label":"9","active":false},{"url":"http:\/\/localhost\/api\/v1\/user?page=10","label":"10","active":false},{"url":null,"label":"...","active":false},{"url":"http:\/\/localhost\/api\/v1\/user?page=1663","label":"1663","active":false},{"url":"http:\/\/localhost\/api\/v1\/user?page=1664","label":"1664","active":false},{"url":"http:\/\/localhost\/api\/v1\/user?page=2","label":"Next &raquo;","active":false}],"next_page_url":"http:\/\/localhost\/api\/v1\/user?page=2","path":"http:\/\/localhost\/api\/v1\/user","per_page":15,"prev_page_url":null,"to":15,"total":24947}